{
  "content": [
    {}
  ],
  "page": {
    "size": 1,
    "number": 3,
    "totalElements": 6,
    "totalPages": 6
  }
}
